id;sex;stress;density;viability;size;bgal
f1;female;t20;330000;68;8,1;12122
f2;female;t20;2500000;67;8,1;12472
f3;female;t20;5100000;49;8,5;11506
f4;female;t20;580000;39;7,4;9082
f5;female;t20;1800000;55;7,8;12867
f6;female;t20;3100000;72;8,3;20535
f7;female;t20;4300000;68;8;15899
f8;female;t20;5900000;74;7,7;10693
f9;female;t20;2400000;74;7,7;11370
f10;male;t20;2700000;73;7,6;9591
f11;female;t20;6900000;58;7,5;8459
f12;female;t20;5500000;73;7,7;9705
f13;female;t20;4600000;69;8,4;12996
f14;male;t20;3600000;66;7,6;9918
f15;female;t20;5000000;65;7,7;10245
f1;female;t28;1100000;34;7,4;9371
f2;male;t28;400000;61;7,5;8915
f3;female;t28;2200000;70;7,7;13125
f4;female;t28;1800000;64;8,1;30096
f5;female;t28;2600000;59;7,9;11383
f6;female;t28;2600000;65;8;22010
f7;female;t28;1000000;66;8,3;19775
f8;female;t28;640000;73;7,5;23887
f9;female;t28;400000;66;7,7;15253
f10;female;t28;1900000;75;7,3;12244
f11;male;t28;40000;14;6;11301
f12;female;t28;760000;31;8,3;24373
f14;female;t28;2600000;39;7,9;13619
f15;female;t28;1500000;50;7,8;23970
m1;male;t20;2300000;63;7,6;11757
m2;male;t20;4000000;48;7,6;23978
m3;male;t20;2500000;55;7,8;9758
m4;female;t20;3700000;48;8,3;16180
m5;male;t20;4300000;68;8;10351
m6;male;t20;3100000;65;8,4;12578
m7;male;t20;1800000;72;8;22519
m8;male;t20;1300000;31;8,3;9492
m9;male;t20;3500000;59;8,5;9173
m10;male;t20;3700000;64;7,8;9105
m11;female;t20;2300000;76;7,4;13186
m12;male;t20;6700000;51;8,1;8375
m13;male;t20;3400000;56;7,7;13201
m14;male;t20;NA;NA;NA;15177
m15;male;t20;5700000;71;7,7;9705
m1;male;t28;180000;57;7,7;NA
m2;male;t28;2300000;74;7,9;12122
m3;male;t28;970000;61;6,9;15246
m4;male;t28;970000;61;6,9;NA
m5;male;t28;1700000;65;8,1;27869
m6;male;t28;1900000;60;7,2;12905
m7;male;t28;1500000;59;8;18118
m8;male;t28;1100000;69;7,6;9143
m9;male;t28;2000000;57;7,4;13216
m10;male;t28;1200000;48;7,1;NA
m11;male;t28;2600000;67;7,3;21151
m12;male;t28;1800000;63;8,1;12023
m13;male;t28;1100000;44;7,6;21607
m14;male;t28;1200000;66;8,2;15504
m15;male;t28;750000;83;7,7;23736
